GTKW/ULPI_REG_READ_tb.vcd
$date
	Mon Sep  3 17:41:10 2018
$end
$version
	Icarus Verilog
$end
$timescale
	1s
$end
$scope module ULPI_REG_READ_tb $end
$var wire 1 ! STP $end
$var wire 1 " busy $end
$var wire 8 # ULPI_DATA_w [7:0] $end
$var wire 8 $ ULPI_DATA [7:0] $end
$var wire 8 % DATA [7:0] $end
$var reg 6 & ADDR [5:0] $end
$var reg 1 ' DIR $end
$var reg 1 ( NXT $end
$var reg 1 ) RD $end
$var reg 8 * ULPI_DATA_r [7:0] $end
$var reg 1 + clk $end
$var reg 1 , rst $end
$scope module READ_tb $end
$var wire 6 - ADDR [5:0] $end
$var wire 8 . DATA [7:0] $end
$var wire 1 ' DIR $end
$var wire 1 ( NXT $end
$var wire 1 ) READ_DATA $end
$var wire 1 ! STP $end
$var wire 8 / ULPI_DATA_IN [7:0] $end
$var wire 1 + clk $end
$var wire 1 , rst $end
$var wire 8 0 ULPI_DATA_OUT [7:0] $end
$var wire 1 1 READ_s_WAIT $end
$var wire 1 2 READ_s_TXCMD $end
$var wire 1 3 READ_s_SAVE_DATA $end
$var wire 1 4 READ_s_IDLE $end
$var wire 1 " BUSY $end
$var reg 8 5 DATA_r [7:0] $end
$var reg 2 6 READ_state_r [1:0] $end
$var reg 8 7 ULPI_DATA_OUT_r [7:0] $end
$upscope $end
$upscope $end
$enddefinitions $end
#0
$dumpvars
b0 7
b0 6
b0 5
14
03
02
01
b0 0
b111101 /
b0 .
b0 -
0,
0+
b111101 *
0)
0(
0'
b0 &
b0 %
b0 $
b0 #
0"
z!
$end
#1
1+
#2
0+
b11011 &
b11011 -
1)
#3
b11011011 $
1"
04
12
b11011011 #
b11011011 0
b11011011 7
b1 6
1+
#4
0+
b0 &
b0 -
0)
#5
1+
#6
0+
1(
#7
02
11
b10 6
1+
#8
0+
b111101 $
1'
0(
#9
01
13
b0 #
b0 0
b0 7
b11 6
1+
#10
0+
#11
b111101 %
b111101 .
b111101 5
1+
#12
0+
b0 $
0'
#13
0"
14
03
b0 6
1+
